[
  {
    "name" : {
      "english" : "Griseous Orb",
      "japanese" : "はっきんだま",
      "chinese" : "白金宝珠"
    },
    "id" : 112
  },
  {
    "id" : 116,
    "name" : {
      "english" : "Douse Drive",
      "japanese" : "アクアカセット",
      "chinese" : "水流卡带"
    }
  },
  {
    "name" : {
      "chinese" : "闪电卡带",
      "english" : "Shock Drive",
      "japanese" : "イナズマカセット"
    },
    "id" : 117
  },
  {
    "id" : 118,
    "name" : {
      "chinese" : "火焰卡带",
      "japanese" : "ブレイズカセット",
      "english" : "Burn Drive"
    }
  },
  {
    "id" : 119,
    "name" : {
      "chinese" : "冰冻卡带",
      "english" : "Chill Drive",
      "japanese" : "フリーズカセット"
    }
  },
  {
    "name" : {
      "english" : "Sweet Heart",
      "japanese" : "ハートスイーツ",
      "chinese" : "心形甜点"
    },
    "id" : 134
  },
  {
    "name" : {
      "chinese" : "金刚宝珠",
      "english" : "Adamant Orb",
      "japanese" : "こんごうだま"
    },
    "id" : 135
  },
  {
    "id" : 136,
    "name" : {
      "chinese" : "白玉宝珠",
      "japanese" : "しらたま",
      "english" : "Lustrous Orb"
    }
  },
  {
    "name" : {
      "chinese" : "樱子果",
      "english" : "Cheri Berry",
      "japanese" : "クラボのみ"
    },
    "id" : 149
  },
  {
    "name" : {
      "japanese" : "カゴのみ",
      "english" : "Chesto Berry",
      "chinese" : "零余果"
    },
    "id" : 150
  },
  {
    "name" : {
      "chinese" : "桃桃果",
      "english" : "Pecha Berry",
      "japanese" : "モモンのみ"
    },
    "id" : 151
  },
  {
    "name" : {
      "chinese" : "莓莓果",
      "japanese" : "チーゴのみ",
      "english" : "Rawst Berry"
    },
    "id" : 152
  },
  {
    "id" : 153,
    "name" : {
      "chinese" : "利木果",
      "english" : "Aspear Berry",
      "japanese" : "ナナシのみ"
    }
  },
  {
    "name" : {
      "english" : "Leppa Berry",
      "japanese" : "ヒメリのみ",
      "chinese" : "苹野果"
    },
    "id" : 154
  },
  {
    "id" : 155,
    "name" : {
      "chinese" : "橙橙果",
      "japanese" : "オレンのみ",
      "english" : "Oran Berry"
    }
  },
  {
    "id" : 156,
    "name" : {
      "english" : "Persim Berry",
      "japanese" : "キーのみ",
      "chinese" : "柿仔果"
    }
  },
  {
    "name" : {
      "japanese" : "ラムのみ",
      "english" : "Lum Berry",
      "chinese" : "木子果"
    },
    "id" : 157
  },
  {
    "name" : {
      "chinese" : "文柚果",
      "english" : "Sitrus Berry",
      "japanese" : "オボンのみ"
    },
    "id" : 158
  },
  {
    "name" : {
      "english" : "Figy Berry",
      "japanese" : "フィラのみ",
      "chinese" : "勿花果"
    },
    "id" : 159
  },
  {
    "id" : 160,
    "name" : {
      "chinese" : "异奇果",
      "japanese" : "ウイのみ",
      "english" : "Wiki Berry"
    }
  },
  {
    "id" : 161,
    "name" : {
      "japanese" : "マゴのみ",
      "english" : "Mago Berry",
      "chinese" : "芒芒果"
    }
  },
  {
    "id" : 162,
    "name" : {
      "chinese" : "乐芭果",
      "japanese" : "バンジのみ",
      "english" : "Aguav Berry"
    }
  },
  {
    "name" : {
      "english" : "Iapapa Berry",
      "japanese" : "イアのみ",
      "chinese" : "芭亚果"
    },
    "id" : 163
  },
  {
    "id" : 164,
    "name" : {
      "chinese" : "蔓莓果",
      "japanese" : "ズリのみ",
      "english" : "Razz Berry"
    }
  },
  {
    "id" : 165,
    "name" : {
      "japanese" : "ブリーのみ",
      "english" : "Bluk Berry",
      "chinese" : "墨莓果"
    }
  },
  {
    "name" : {
      "chinese" : "蕉香果",
      "english" : "Nanab Berry",
      "japanese" : "ナナのみ"
    },
    "id" : 166
  },
  {
    "id" : 167,
    "name" : {
      "english" : "Wepear Berry",
      "japanese" : "セシナのみ",
      "chinese" : "西梨果"
    }
  },
  {
    "id" : 168,
    "name" : {
      "chinese" : "凰梨果",
      "japanese" : "パイルのみ",
      "english" : "Pinap Berry"
    }
  },
  {
    "id" : 169,
    "name" : {
      "english" : "Pomeg Berry",
      "japanese" : "ザロクのみ",
      "chinese" : "榴石果"
    }
  },
  {
    "name" : {
      "chinese" : "藻根果",
      "english" : "Kelpsy Berry",
      "japanese" : "ネコブのみ"
    },
    "id" : 170
  },
  {
    "id" : 171,
    "name" : {
      "english" : "Qualot Berry",
      "japanese" : "タポルのみ",
      "chinese" : "比巴果"
    }
  },
  {
    "id" : 172,
    "name" : {
      "japanese" : "ロメのみ",
      "english" : "Hondew Berry",
      "chinese" : "哈密果"
    }
  },
  {
    "id" : 173,
    "name" : {
      "chinese" : "萄葡果",
      "english" : "Grepa Berry",
      "japanese" : "ウブのみ"
    }
  },
  {
    "name" : {
      "english" : "Tamato Berry",
      "japanese" : "マトマのみ",
      "chinese" : "茄番果"
    },
    "id" : 174
  },
  {
    "name" : {
      "english" : "Cornn Berry",
      "japanese" : "モコシのみ",
      "chinese" : "玉黍果"
    },
    "id" : 175
  },
  {
    "id" : 176,
    "name" : {
      "chinese" : "岳竹果",
      "japanese" : "ゴスのみ",
      "english" : "Magost Berry"
    }
  },
  {
    "id" : 177,
    "name" : {
      "chinese" : "茸丹果",
      "japanese" : "ラブタのみ",
      "english" : "Rabuta Berry"
    }
  },
  {
    "name" : {
      "chinese" : "檬柠果",
      "english" : "Nomel Berry",
      "japanese" : "ノメルのみ"
    },
    "id" : 178
  },
  {
    "id" : 179,
    "name" : {
      "english" : "Spelon Berry",
      "japanese" : "ノワキのみ",
      "chinese" : "刺角果"
    }
  },
  {
    "name" : {
      "chinese" : "椰木果",
      "english" : "Pamtre Berry",
      "japanese" : "シーヤのみ"
    },
    "id" : 180
  },
  {
    "name" : {
      "chinese" : "瓜西果",
      "english" : "Watmel Berry",
      "japanese" : "カイスのみ"
    },
    "id" : 181
  },
  {
    "id" : 182,
    "name" : {
      "chinese" : "金枕果",
      "japanese" : "ドリのみ",
      "english" : "Durin Berry"
    }
  },
  {
    "id" : 183,
    "name" : {
      "chinese" : "靛莓果",
      "english" : "Belue Berry",
      "japanese" : "ベリブのみ"
    }
  },
  {
    "name" : {
      "chinese" : "巧可果",
      "japanese" : "オッカのみ",
      "english" : "Occa Berry"
    },
    "id" : 184
  },
  {
    "id" : 185,
    "name" : {
      "japanese" : "イトケのみ",
      "english" : "Passho Berry",
      "chinese" : "千香果"
    }
  },
  {
    "id" : 186,
    "name" : {
      "chinese" : "独木果",
      "japanese" : "ソクノのみ",
      "english" : "Wacan Berry"
    }
  },
  {
    "id" : 187,
    "name" : {
      "japanese" : "リンドのみ",
      "english" : "Rindo Berry",
      "chinese" : "罗子果"
    }
  },
  {
    "name" : {
      "japanese" : "ヤチェのみ",
      "english" : "Yache Berry",
      "chinese" : "番荔果"
    },
    "id" : 188
  },
  {
    "id" : 189,
    "name" : {
      "japanese" : "ヨプのみ",
      "english" : "Chople Berry",
      "chinese" : "莲蒲果"
    }
  },
  {
    "id" : 190,
    "name" : {
      "japanese" : "ビアーのみ",
      "english" : "Kebia Berry",
      "chinese" : "通通果"
    }
  },
  {
    "id" : 191,
    "name" : {
      "chinese" : "腰木果",
      "english" : "Shuca Berry",
      "japanese" : "シュカのみ"
    }
  },
  {
    "name" : {
      "chinese" : "棱瓜果",
      "japanese" : "バコウのみ",
      "english" : "Coba Berry"
    },
    "id" : 192
  },
  {
    "id" : 193,
    "name" : {
      "chinese" : "福禄果",
      "japanese" : "ウタンのみ",
      "english" : "Payapa Berry"
    }
  },
  {
    "id" : 194,
    "name" : {
      "chinese" : "扁樱果",
      "english" : "Tanga Berry",
      "japanese" : "タンガのみ"
    }
  },
  {
    "name" : {
      "japanese" : "ヨロギのみ",
      "english" : "Charti Berry",
      "chinese" : "草蚕果"
    },
    "id" : 195
  },
  {
    "id" : 196,
    "name" : {
      "chinese" : "佛柑果",
      "japanese" : "カシブのみ",
      "english" : "Kasib Berry"
    }
  },
  {
    "name" : {
      "english" : "Haban Berry",
      "japanese" : "ハバンのみ",
      "chinese" : "莓榴果"
    },
    "id" : 197
  },
  {
    "name" : {
      "chinese" : "刺耳果",
      "japanese" : "ナモのみ",
      "english" : "Colbur Berry"
    },
    "id" : 198
  },
  {
    "id" : 199,
    "name" : {
      "japanese" : "リリバのみ",
      "english" : "Babiri Berry",
      "chinese" : "霹霹果"
    }
  },
  {
    "id" : 200,
    "name" : {
      "chinese" : "燈漿果",
      "japanese" : "ホズのみ",
      "english" : "Chilan Berry"
    }
  },
  {
    "id" : 201,
    "name" : {
      "chinese" : "枝荔果",
      "english" : "Liechi Berry",
      "japanese" : "チイラのみ"
    }
  },
  {
    "name" : {
      "english" : "Ganlon Berry",
      "japanese" : "リュガのみ",
      "chinese" : "龙睛果"
    },
    "id" : 202
  },
  {
    "name" : {
      "chinese" : "沙鳞果",
      "english" : "Salac Berry",
      "japanese" : "カムラのみ"
    },
    "id" : 203
  },
  {
    "id" : 204,
    "name" : {
      "english" : "Petaya Berry",
      "japanese" : "ヤタピのみ",
      "chinese" : "龙火果"
    }
  },
  {
    "id" : 205,
    "name" : {
      "chinese" : "杏仔果",
      "japanese" : "ズアのみ",
      "english" : "Apicot Berry"
    }
  },
  {
    "name" : {
      "chinese" : "兰萨果",
      "japanese" : "サンのみ",
      "english" : "Lansat Berry"
    },
    "id" : 206
  },
  {
    "name" : {
      "japanese" : "スターのみ",
      "english" : "Starf Berry",
      "chinese" : "星桃果"
    },
    "id" : 207
  },
  {
    "id" : 208,
    "name" : {
      "chinese" : "谜芝果",
      "english" : "Enigma Berry",
      "japanese" : "ナゾのみ"
    }
  },
  {
    "name" : {
      "chinese" : "奇秘果",
      "english" : "Micle Berry",
      "japanese" : "ミクルのみ"
    },
    "id" : 209
  },
  {
    "id" : 210,
    "name" : {
      "japanese" : "イバンのみ",
      "english" : "Custap Berry",
      "chinese" : "释陀果"
    }
  },
  {
    "id" : 211,
    "name" : {
      "japanese" : "ジャポのみ",
      "english" : "Jaboca Berry",
      "chinese" : "嘉珍果"
    }
  },
  {
    "id" : 212,
    "name" : {
      "chinese" : "雾莲果",
      "japanese" : "レンブのみ",
      "english" : "Rowap Berry"
    }
  },
  {
    "id" : 213,
    "name" : {
      "chinese" : "光粉",
      "japanese" : "ひかりのこな",
      "english" : "Bright Powder"
    }
  },
  {
    "id" : 214,
    "name" : {
      "chinese" : "白色香草",
      "english" : "White Herb",
      "japanese" : "しろいハーブ"
    }
  },
  {
    "name" : {
      "english" : "Macho Brace",
      "japanese" : "きょうせいギプス",
      "chinese" : "强制锻炼器"
    },
    "id" : 215
  },
  {
    "id" : 216,
    "name" : {
      "chinese" : "学习装置",
      "japanese" : "がくしゅうそうち",
      "english" : "Exp. Share"
    }
  },
  {
    "id" : 217,
    "name" : {
      "chinese" : "先制之爪",
      "english" : "Quick Claw",
      "japanese" : "せんせいのツメ"
    }
  },
  {
    "name" : {
      "english" : "Soothe Bell",
      "japanese" : "やすらぎのすず",
      "chinese" : "安抚之铃"
    },
    "id" : 218
  },
  {
    "name" : {
      "japanese" : "メンタルハーブ",
      "english" : "Mental Herb",
      "chinese" : "心灵香草"
    },
    "id" : 219
  },
  {
    "id" : 220,
    "name" : {
      "japanese" : "こだわりハチマキ",
      "english" : "Choice Band",
      "chinese" : "讲究头带"
    }
  },
  {
    "id" : 221,
    "name" : {
      "chinese" : "王者之证",
      "english" : "King's Rock",
      "japanese" : "おうじゃのしるし"
    }
  },
  {
    "name" : {
      "chinese" : "银粉",
      "english" : "Silver Powder",
      "japanese" : "ぎんのこな"
    },
    "id" : 222
  },
  {
    "id" : 223,
    "name" : {
      "english" : "Amulet Coin",
      "japanese" : "おまもりこばん",
      "chinese" : "护符金币"
    }
  },
  {
    "name" : {
      "chinese" : "洁净之符",
      "japanese" : "きよめのおふだ",
      "english" : "Cleanse Tag"
    },
    "id" : 224
  },
  {
    "name" : {
      "japanese" : "こころのしずく",
      "english" : "Soul Dew",
      "chinese" : "心之水滴"
    },
    "id" : 225
  },
  {
    "id" : 226,
    "name" : {
      "english" : "Deep Sea Tooth",
      "japanese" : "しんかいのキバ",
      "chinese" : "深海之牙"
    }
  },
  {
    "name" : {
      "english" : "Deep Sea Scale",
      "japanese" : "しんかいのウロコ",
      "chinese" : "深海鳞片"
    },
    "id" : 227
  },
  {
    "name" : {
      "chinese" : "烟雾球",
      "english" : "Smoke Ball",
      "japanese" : "けむりだま"
    },
    "id" : 228
  },
  {
    "id" : 229,
    "name" : {
      "chinese" : "不变之石",
      "english" : "Everstone",
      "japanese" : "かわらずのいし"
    }
  },
  {
    "id" : 230,
    "name" : {
      "japanese" : "きあいのハチマキ",
      "english" : "Focus Band",
      "chinese" : "气势头带"
    }
  },
  {
    "id" : 231,
    "name" : {
      "english" : "Lucky Egg",
      "japanese" : "しあわせタマゴ",
      "chinese" : "幸运蛋"
    }
  },
  {
    "id" : 232,
    "name" : {
      "english" : "Scope Lens",
      "japanese" : "ピントレンズ",
      "chinese" : "焦点镜"
    }
  },
  {
    "id" : 233,
    "name" : {
      "chinese" : "金属膜",
      "english" : "Metal Coat",
      "japanese" : "メタルコート"
    }
  },
  {
    "id" : 234,
    "name" : {
      "japanese" : "たべのこし",
      "english" : "Leftovers",
      "chinese" : "吃剩的东西"
    }
  },
  {
    "name" : {
      "japanese" : "りゅうのウロコ",
      "english" : "Dragon Scale",
      "chinese" : "龙之鳞片"
    },
    "id" : 235
  },
  {
    "name" : {
      "english" : "Light Ball",
      "japanese" : "でんきだま",
      "chinese" : "电气球"
    },
    "id" : 236
  },
  {
    "id" : 237,
    "name" : {
      "chinese" : "柔软沙子",
      "english" : "Soft Sand",
      "japanese" : "やわらかいすな"
    }
  },
  {
    "id" : 238,
    "name" : {
      "chinese" : "硬石头",
      "english" : "Hard Stone",
      "japanese" : "かたいいし"
    }
  },
  {
    "name" : {
      "japanese" : "きせきのタネ",
      "english" : "Miracle Seed",
      "chinese" : "奇迹种子"
    },
    "id" : 239
  },
  {
    "id" : 240,
    "name" : {
      "english" : "Black Glasses",
      "japanese" : "くろいメガネ",
      "chinese" : "黑色眼镜"
    }
  },
  {
    "id" : 241,
    "name" : {
      "chinese" : "黑带",
      "japanese" : "くろおび",
      "english" : "Black Belt"
    }
  },
  {
    "name" : {
      "english" : "Magnet",
      "japanese" : "じしゃく",
      "chinese" : "磁铁"
    },
    "id" : 242
  },
  {
    "id" : 243,
    "name" : {
      "english" : "Mystic Water",
      "japanese" : "しんぴのしずく",
      "chinese" : "神秘水滴"
    }
  },
  {
    "id" : 244,
    "name" : {
      "chinese" : "锐利鸟嘴",
      "english" : "Sharp Beak",
      "japanese" : "するどいくちばし"
    }
  },
  {
    "name" : {
      "japanese" : "どくバリ",
      "english" : "Poison Barb",
      "chinese" : "毒针"
    },
    "id" : 245
  },
  {
    "id" : 246,
    "name" : {
      "japanese" : "とけないこおり",
      "english" : "Never-Melt Ice",
      "chinese" : "不融冰"
    }
  },
  {
    "name" : {
      "chinese" : "诅咒之符",
      "japanese" : "のろいのおふだ",
      "english" : "Spell Tag"
    },
    "id" : 247
  },
  {
    "name" : {
      "japanese" : "まがったスプーン",
      "english" : "Twisted Spoon",
      "chinese" : "弯曲的汤匙"
    },
    "id" : 248
  },
  {
    "name" : {
      "english" : "Charcoal",
      "japanese" : "もくたん",
      "chinese" : "木炭"
    },
    "id" : 249
  },
  {
    "id" : 250,
    "name" : {
      "chinese" : "龙之牙",
      "japanese" : "りゅうのキバ",
      "english" : "Dragon Fang"
    }
  },
  {
    "name" : {
      "chinese" : "丝绸围巾",
      "english" : "Silk Scarf",
      "japanese" : "シルクのスカーフ"
    },
    "id" : 251
  },
  {
    "id" : 252,
    "name" : {
      "japanese" : "アップグレード",
      "english" : "Up-Grade",
      "chinese" : "升級資料升级数据"
    }
  },
  {
    "id" : 253,
    "name" : {
      "chinese" : "贝壳之铃",
      "english" : "Shell Bell",
      "japanese" : "かいがらのすず"
    }
  },
  {
    "name" : {
      "chinese" : "海潮薰香",
      "english" : "Sea Incense",
      "japanese" : "うしおのおこう"
    },
    "id" : 254
  },
  {
    "id" : 255,
    "name" : {
      "japanese" : "のんきのおこう",
      "english" : "Lax Incense",
      "chinese" : "悠闲薰香"
    }
  },
  {
    "id" : 256,
    "name" : {
      "english" : "Lucky Punch",
      "japanese" : "ラッキーパンチ",
      "chinese" : "吉利拳"
    }
  },
  {
    "name" : {
      "japanese" : "メタルパウダー",
      "english" : "Metal Powder",
      "chinese" : "金属粉"
    },
    "id" : 257
  },
  {
    "id" : 258,
    "name" : {
      "chinese" : "粗骨头",
      "japanese" : "ふといホネ",
      "english" : "Thick Club"
    }
  },
  {
    "name" : {
      "chinese" : "大葱",
      "japanese" : "ながねぎ",
      "english" : "Stick"
    },
    "id" : 259
  },
  {
    "id" : 260,
    "name" : {
      "chinese" : "红色头巾",
      "japanese" : "あかいバンダナ",
      "english" : "Red Scarf"
    }
  },
  {
    "name" : {
      "english" : "Blue Scarf",
      "japanese" : "あおいバンダナ",
      "chinese" : "蓝色头巾"
    },
    "id" : 261
  },
  {
    "name" : {
      "english" : "Pink Scarf",
      "japanese" : "ピンクのバンダナ",
      "chinese" : "粉红头巾"
    },
    "id" : 262
  },
  {
    "id" : 263,
    "name" : {
      "japanese" : "みどりのバンダナ",
      "english" : "Green Scarf",
      "chinese" : "绿色头巾"
    }
  },
  {
    "name" : {
      "japanese" : "きいろのバンダナ",
      "english" : "Yellow Scarf",
      "chinese" : "黄色头巾"
    },
    "id" : 264
  },
  {
    "id" : 265,
    "name" : {
      "chinese" : "广角镜",
      "japanese" : "こうかくレンズ",
      "english" : "Wide Lens"
    }
  },
  {
    "name" : {
      "japanese" : "ちからのハチマキ",
      "english" : "Muscle Band",
      "chinese" : "力量头带"
    },
    "id" : 266
  },
  {
    "id" : 267,
    "name" : {
      "japanese" : "ものしりメガネ",
      "english" : "Wise Glasses",
      "chinese" : "博识眼镜"
    }
  },
  {
    "name" : {
      "english" : "Expert Belt",
      "japanese" : "たつじんのおび",
      "chinese" : "达人带"
    },
    "id" : 268
  },
  {
    "name" : {
      "japanese" : "ひかりのねんど",
      "english" : "Light Clay",
      "chinese" : "光之黏土"
    },
    "id" : 269
  },
  {
    "name" : {
      "chinese" : "生命宝珠",
      "english" : "Life Orb",
      "japanese" : "いのちのたま"
    },
    "id" : 270
  },
  {
    "id" : 271,
    "name" : {
      "japanese" : "パワフルハーブ",
      "english" : "Power Herb",
      "chinese" : "强力香草"
    }
  },
  {
    "id" : 272,
    "name" : {
      "chinese" : "剧毒宝珠",
      "japanese" : "どくどくだま",
      "english" : "Toxic Orb"
    }
  },
  {
    "name" : {
      "chinese" : "火焰宝珠",
      "japanese" : "かえんだま",
      "english" : "Flame Orb"
    },
    "id" : 273
  },
  {
    "name" : {
      "english" : "Quick Powder",
      "japanese" : "スピードパウダー",
      "chinese" : "速度粉"
    },
    "id" : 274
  },
  {
    "id" : 275,
    "name" : {
      "chinese" : "气势披带",
      "english" : "Focus Sash",
      "japanese" : "きあいのタスキ"
    }
  },
  {
    "name" : {
      "chinese" : "对焦镜",
      "english" : "Zoom Lens",
      "japanese" : "フォーカスレンズ"
    },
    "id" : 276
  },
  {
    "id" : 277,
    "name" : {
      "english" : "Metronome",
      "japanese" : "メトロノーム",
      "chinese" : "节拍器"
    }
  },
  {
    "id" : 278,
    "name" : {
      "chinese" : "黑色铁球",
      "english" : "Iron Ball",
      "japanese" : "くろいてっきゅう"
    }
  },
  {
    "name" : {
      "chinese" : "后攻之尾",
      "english" : "Lagging Tail",
      "japanese" : "こうこうのしっぽ"
    },
    "id" : 279
  },
  {
    "id" : 280,
    "name" : {
      "chinese" : "红线",
      "english" : "Destiny Knot",
      "japanese" : "あかいいと"
    }
  },
  {
    "id" : 281,
    "name" : {
      "english" : "Black Sludge",
      "japanese" : "くろいヘドロ",
      "chinese" : "黑色污泥"
    }
  },
  {
    "name" : {
      "chinese" : "冰冷岩石",
      "japanese" : "つめたいいわ",
      "english" : "Icy Rock"
    },
    "id" : 282
  },
  {
    "id" : 283,
    "name" : {
      "chinese" : "沙沙岩石",
      "japanese" : "さらさらいわ",
      "english" : "Smooth Rock"
    }
  },
  {
    "name" : {
      "japanese" : "あついいわ",
      "english" : "Heat Rock",
      "chinese" : "炽热岩石"
    },
    "id" : 284
  },
  {
    "id" : 285,
    "name" : {
      "chinese" : "潮湿岩石",
      "japanese" : "しめったいわ",
      "english" : "Damp Rock"
    }
  },
  {
    "name" : {
      "chinese" : "紧缠钩爪",
      "japanese" : "ねばりのかぎづめ",
      "english" : "Grip Claw"
    },
    "id" : 286
  },
  {
    "id" : 287,
    "name" : {
      "japanese" : "こだわりスカーフ",
      "english" : "Choice Scarf",
      "chinese" : "讲究围巾"
    }
  },
  {
    "name" : {
      "chinese" : "附着针",
      "japanese" : "くっつきバリ",
      "english" : "Sticky Barb"
    },
    "id" : 288
  },
  {
    "name" : {
      "chinese" : "力量护腕",
      "japanese" : "パワーリスト",
      "english" : "Power Bracer"
    },
    "id" : 289
  },
  {
    "name" : {
      "chinese" : "力量腰带",
      "japanese" : "パワーベルト",
      "english" : "Power Belt"
    },
    "id" : 290
  },
  {
    "name" : {
      "japanese" : "パワーレンズ",
      "english" : "Power Lens",
      "chinese" : "力量镜"
    },
    "id" : 291
  },
  {
    "id" : 292,
    "name" : {
      "chinese" : "力量束带",
      "japanese" : "パワーバンド",
      "english" : "Power Band"
    }
  },
  {
    "id" : 293,
    "name" : {
      "chinese" : "力量护踝",
      "japanese" : "パワーアンクル",
      "english" : "Power Anklet"
    }
  },
  {
    "id" : 294,
    "name" : {
      "japanese" : "パワーウエイト",
      "english" : "Power Weight",
      "chinese" : "力量负重"
    }
  },
  {
    "id" : 295,
    "name" : {
      "japanese" : "きれいなぬけがら",
      "english" : "Shed Shell",
      "chinese" : "美丽空壳"
    }
  },
  {
    "name" : {
      "japanese" : "おおきなねっこ",
      "english" : "Big Root",
      "chinese" : "大根茎"
    },
    "id" : 296
  },
  {
    "id" : 297,
    "name" : {
      "english" : "Choice Specs",
      "japanese" : "こだわりメガネ",
      "chinese" : "讲究眼镜"
    }
  },
  {
    "id" : 298,
    "name" : {
      "japanese" : "ひのたまプレート",
      "english" : "Flame Plate",
      "chinese" : "火球石板"
    }
  },
  {
    "id" : 299,
    "name" : {
      "english" : "Splash Plate",
      "japanese" : "しずくプレート",
      "chinese" : "水滴石板"
    }
  },
  {
    "name" : {
      "chinese" : "雷电石板",
      "english" : "Zap Plate",
      "japanese" : "いかずちプレート"
    },
    "id" : 300
  },
  {
    "id" : 301,
    "name" : {
      "english" : "Meadow Plate",
      "japanese" : "みどりのプレート",
      "chinese" : "碧绿石板"
    }
  },
  {
    "id" : 302,
    "name" : {
      "chinese" : "冰柱石板",
      "english" : "Icicle Plate",
      "japanese" : "つららのプレート"
    }
  },
  {
    "name" : {
      "chinese" : "拳头石板",
      "english" : "Fist Plate",
      "japanese" : "こぶしのプレート"
    },
    "id" : 303
  },
  {
    "name" : {
      "english" : "Toxic Plate",
      "japanese" : "もうどくプレート",
      "chinese" : "剧毒石板"
    },
    "id" : 304
  },
  {
    "name" : {
      "japanese" : "だいちのプレート",
      "english" : "Earth Plate",
      "chinese" : "大地石板"
    },
    "id" : 305
  },
  {
    "name" : {
      "japanese" : "あおぞらプレート",
      "english" : "Sky Plate",
      "chinese" : "蓝天石板"
    },
    "id" : 306
  },
  {
    "name" : {
      "chinese" : "神奇石板",
      "english" : "Mind Plate",
      "japanese" : "ふしぎのプレート"
    },
    "id" : 307
  },
  {
    "id" : 308,
    "name" : {
      "chinese" : "玉虫石板",
      "japanese" : "たまむしプレート",
      "english" : "Insect Plate"
    }
  },
  {
    "name" : {
      "japanese" : "がんせきプレート",
      "english" : "Stone Plate",
      "chinese" : "岩石石板"
    },
    "id" : 309
  },
  {
    "name" : {
      "japanese" : "もののけプレート",
      "english" : "Spooky Plate",
      "chinese" : "妖怪石板"
    },
    "id" : 310
  },
  {
    "name" : {
      "english" : "Draco Plate",
      "japanese" : "りゅうのプレート",
      "chinese" : "龙之石板"
    },
    "id" : 311
  },
  {
    "name" : {
      "chinese" : "恶颜石板",
      "japanese" : "こわもてプレート",
      "english" : "Dread Plate"
    },
    "id" : 312
  },
  {
    "name" : {
      "chinese" : "钢铁石板",
      "english" : "Iron Plate",
      "japanese" : "こうてつプレート"
    },
    "id" : 313
  },
  {
    "id" : 314,
    "name" : {
      "chinese" : "奇异薰香",
      "japanese" : "あやしいおこう",
      "english" : "Odd Incense"
    }
  },
  {
    "name" : {
      "chinese" : "岩石薰香",
      "english" : "Rock Incense",
      "japanese" : "がんせきおこう"
    },
    "id" : 315
  },
  {
    "name" : {
      "chinese" : "饱腹薰香",
      "english" : "Full Incense",
      "japanese" : "まんぷくおこう"
    },
    "id" : 316
  },
  {
    "name" : {
      "chinese" : "涟漪薰香",
      "english" : "Wave Incense",
      "japanese" : "さざなみのおこう"
    },
    "id" : 317
  },
  {
    "name" : {
      "english" : "Rose Incense",
      "japanese" : "おはなのおこう",
      "chinese" : "花朵薰香"
    },
    "id" : 318
  },
  {
    "id" : 319,
    "name" : {
      "chinese" : "幸运薰香",
      "japanese" : "こううんのおこう",
      "english" : "Luck Incense"
    }
  },
  {
    "name" : {
      "chinese" : "洁净薰香",
      "english" : "Pure Incense",
      "japanese" : "きよめのおこう"
    },
    "id" : 320
  },
  {
    "id" : 321,
    "name" : {
      "chinese" : "护具",
      "japanese" : "プロテクター",
      "english" : "Protector"
    }
  },
  {
    "name" : {
      "chinese" : "电力增幅器",
      "english" : "Electirizer",
      "japanese" : "エレキブースター"
    },
    "id" : 322
  },
  {
    "name" : {
      "chinese" : "熔岩增幅器",
      "english" : "Magmarizer",
      "japanese" : "マグマブースター"
    },
    "id" : 323
  },
  {
    "name" : {
      "japanese" : "あやしいパッチ",
      "english" : "Dubious Disc",
      "chinese" : "可疑补丁"
    },
    "id" : 324
  },
  {
    "name" : {
      "chinese" : "灵界之布",
      "japanese" : "れいかいのぬの",
      "english" : "Reaper Cloth"
    },
    "id" : 325
  },
  {
    "id" : 326,
    "name" : {
      "chinese" : "锐利之爪",
      "japanese" : "するどいツメ",
      "english" : "Razor Claw"
    }
  },
  {
    "id" : 327,
    "name" : {
      "english" : "Razor Fang",
      "japanese" : "するどいキバ",
      "chinese" : "锐利之牙"
    }
  },
  {
    "name" : {
      "chinese" : "招式学习器01",
      "japanese" : "わざマシン01",
      "english" : "TM01"
    },
    "id" : 328
  },
  {
    "name" : {
      "english" : "TM02",
      "japanese" : "わざマシン02",
      "chinese" : "招式学习器02"
    },
    "id" : 329
  },
  {
    "id" : 330,
    "name" : {
      "chinese" : "招式学习器03",
      "japanese" : "わざマシン03",
      "english" : "TM03"
    }
  },
  {
    "name" : {
      "chinese" : "招式学习器04",
      "english" : "TM04",
      "japanese" : "わざマシン04"
    },
    "id" : 331
  },
  {
    "id" : 332,
    "name" : {
      "chinese" : "招式学习器05",
      "japanese" : "わざマシン05",
      "english" : "TM05"
    }
  },
  {
    "id" : 333,
    "name" : {
      "chinese" : "招式学习器06",
      "japanese" : "わざマシン06",
      "english" : "TM06"
    }
  },
  {
    "name" : {
      "english" : "TM07",
      "japanese" : "わざマシン07",
      "chinese" : "招式学习器07"
    },
    "id" : 334
  },
  {
    "name" : {
      "chinese" : "招式学习器08",
      "japanese" : "わざマシン08",
      "english" : "TM08"
    },
    "id" : 335
  },
  {
    "id" : 336,
    "name" : {
      "japanese" : "わざマシン09",
      "english" : "TM09",
      "chinese" : "招式学习器09"
    }
  },
  {
    "name" : {
      "english" : "TM10",
      "japanese" : "わざマシン10",
      "chinese" : "招式学习器10"
    },
    "id" : 337
  },
  {
    "name" : {
      "chinese" : "招式学习器11",
      "english" : "TM11",
      "japanese" : "わざマシン11"
    },
    "id" : 338
  },
  {
    "name" : {
      "japanese" : "わざマシン12",
      "english" : "TM12",
      "chinese" : "招式学习器12"
    },
    "id" : 339
  },
  {
    "name" : {
      "chinese" : "招式学习器13",
      "japanese" : "わざマシン13",
      "english" : "TM13"
    },
    "id" : 340
  },
  {
    "name" : {
      "english" : "TM14",
      "japanese" : "わざマシン14",
      "chinese" : "招式学习器14"
    },
    "id" : 341
  },
  {
    "name" : {
      "japanese" : "わざマシン15",
      "english" : "TM15",
      "chinese" : "招式学习器15"
    },
    "id" : 342
  },
  {
    "name" : {
      "chinese" : "招式学习器16",
      "japanese" : "わざマシン16",
      "english" : "TM16"
    },
    "id" : 343
  },
  {
    "name" : {
      "chinese" : "招式学习器17",
      "english" : "TM17",
      "japanese" : "わざマシン17"
    },
    "id" : 344
  },
  {
    "id" : 345,
    "name" : {
      "english" : "TM18",
      "japanese" : "わざマシン18",
      "chinese" : "招式学习器18"
    }
  },
  {
    "id" : 346,
    "name" : {
      "english" : "TM19",
      "japanese" : "わざマシン19",
      "chinese" : "招式学习器19"
    }
  },
  {
    "id" : 347,
    "name" : {
      "japanese" : "わざマシン20",
      "english" : "TM20",
      "chinese" : "招式学习器20"
    }
  },
  {
    "name" : {
      "english" : "TM21",
      "japanese" : "わざマシン21",
      "chinese" : "招式学习器21"
    },
    "id" : 348
  },
  {
    "id" : 349,
    "name" : {
      "english" : "TM22",
      "japanese" : "わざマシン22",
      "chinese" : "招式学习器22"
    }
  },
  {
    "id" : 350,
    "name" : {
      "chinese" : "招式学习器23",
      "english" : "TM23",
      "japanese" : "わざマシン23"
    }
  },
  {
    "id" : 351,
    "name" : {
      "english" : "TM24",
      "japanese" : "わざマシン24",
      "chinese" : "招式学习器24"
    }
  },
  {
    "name" : {
      "english" : "TM25",
      "japanese" : "わざマシン25",
      "chinese" : "招式学习器25"
    },
    "id" : 352
  },
  {
    "id" : 353,
    "name" : {
      "chinese" : "招式学习器26",
      "japanese" : "わざマシン26",
      "english" : "TM26"
    }
  },
  {
    "name" : {
      "chinese" : "招式学习器27",
      "english" : "TM27",
      "japanese" : "わざマシン27"
    },
    "id" : 354
  },
  {
    "id" : 355,
    "name" : {
      "english" : "TM28",
      "japanese" : "わざマシン28",
      "chinese" : "招式学习器28"
    }
  },
  {
    "id" : 356,
    "name" : {
      "english" : "TM29",
      "japanese" : "わざマシン29",
      "chinese" : "招式学习器29"
    }
  },
  {
    "name" : {
      "chinese" : "招式学习器30",
      "english" : "TM30",
      "japanese" : "わざマシン30"
    },
    "id" : 357
  },
  {
    "id" : 358,
    "name" : {
      "japanese" : "わざマシン31",
      "english" : "TM31",
      "chinese" : "招式学习器31"
    }
  },
  {
    "name" : {
      "chinese" : "招式学习器32",
      "english" : "TM32",
      "japanese" : "わざマシン32"
    },
    "id" : 359
  },
  {
    "name" : {
      "japanese" : "わざマシン33",
      "english" : "TM33",
      "chinese" : "招式学习器33"
    },
    "id" : 360
  },
  {
    "name" : {
      "japanese" : "わざマシン34",
      "english" : "TM34",
      "chinese" : "招式学习器34"
    },
    "id" : 361
  },
  {
    "id" : 362,
    "name" : {
      "chinese" : "招式学习器35",
      "english" : "TM35",
      "japanese" : "わざマシン35"
    }
  },
  {
    "id" : 363,
    "name" : {
      "chinese" : "招式学习器36",
      "english" : "TM36",
      "japanese" : "わざマシン36"
    }
  },
  {
    "name" : {
      "chinese" : "招式学习器37",
      "japanese" : "わざマシン37",
      "english" : "TM37"
    },
    "id" : 364
  },
  {
    "id" : 365,
    "name" : {
      "english" : "TM38",
      "japanese" : "わざマシン38",
      "chinese" : "招式学习器38"
    }
  },
  {
    "name" : {
      "japanese" : "わざマシン39",
      "english" : "TM39",
      "chinese" : "招式学习器39"
    },
    "id" : 366
  },
  {
    "name" : {
      "english" : "TM40",
      "japanese" : "わざマシン40",
      "chinese" : "招式学习器40"
    },
    "id" : 367
  },
  {
    "id" : 368,
    "name" : {
      "chinese" : "招式学习器41",
      "japanese" : "わざマシン41",
      "english" : "TM41"
    }
  },
  {
    "name" : {
      "chinese" : "招式学习器42",
      "japanese" : "わざマシン42",
      "english" : "TM42"
    },
    "id" : 369
  },
  {
    "id" : 370,
    "name" : {
      "chinese" : "招式学习器43",
      "english" : "TM43",
      "japanese" : "わざマシン43"
    }
  },
  {
    "id" : 371,
    "name" : {
      "english" : "TM44",
      "japanese" : "わざマシン44",
      "chinese" : "招式学习器44"
    }
  },
  {
    "name" : {
      "chinese" : "招式学习器45",
      "english" : "TM45",
      "japanese" : "わざマシン45"
    },
    "id" : 372
  },
  {
    "name" : {
      "japanese" : "わざマシン46",
      "english" : "TM46",
      "chinese" : "招式学习器46"
    },
    "id" : 373
  },
  {
    "id" : 374,
    "name" : {
      "chinese" : "招式学习器47",
      "english" : "TM47",
      "japanese" : "わざマシン47"
    }
  },
  {
    "name" : {
      "japanese" : "わざマシン48",
      "english" : "TM48",
      "chinese" : "招式学习器48"
    },
    "id" : 375
  },
  {
    "id" : 376,
    "name" : {
      "japanese" : "わざマシン49",
      "english" : "TM49",
      "chinese" : "招式学习器49"
    }
  },
  {
    "name" : {
      "japanese" : "わざマシン50",
      "english" : "TM50",
      "chinese" : "招式学习器50"
    },
    "id" : 377
  },
  {
    "name" : {
      "chinese" : "招式学习器51",
      "english" : "TM51",
      "japanese" : "わざマシン51"
    },
    "id" : 378
  },
  {
    "id" : 379,
    "name" : {
      "chinese" : "招式学习器52",
      "japanese" : "わざマシン52",
      "english" : "TM52"
    }
  },
  {
    "id" : 380,
    "name" : {
      "english" : "TM53",
      "japanese" : "わざマシン53",
      "chinese" : "招式学习器53"
    }
  },
  {
    "name" : {
      "chinese" : "招式学习器54",
      "english" : "TM54",
      "japanese" : "わざマシン54"
    },
    "id" : 381
  },
  {
    "id" : 382,
    "name" : {
      "japanese" : "わざマシン55",
      "english" : "TM55",
      "chinese" : "招式学习器55"
    }
  },
  {
    "name" : {
      "english" : "TM56",
      "japanese" : "わざマシン56",
      "chinese" : "招式学习器56"
    },
    "id" : 383
  },
  {
    "name" : {
      "chinese" : "招式学习器57",
      "japanese" : "わざマシン57",
      "english" : "TM57"
    },
    "id" : 384
  },
  {
    "id" : 385,
    "name" : {
      "japanese" : "わざマシン58",
      "english" : "TM58",
      "chinese" : "招式学习器58"
    }
  },
  {
    "name" : {
      "japanese" : "わざマシン59",
      "english" : "TM59",
      "chinese" : "招式学习器59"
    },
    "id" : 386
  },
  {
    "id" : 387,
    "name" : {
      "english" : "TM60",
      "japanese" : "わざマシン60",
      "chinese" : "招式学习器60"
    }
  },
  {
    "id" : 388,
    "name" : {
      "japanese" : "わざマシン61",
      "english" : "TM61",
      "chinese" : "招式学习器61"
    }
  },
  {
    "name" : {
      "chinese" : "招式学习器62",
      "english" : "TM62",
      "japanese" : "わざマシン62"
    },
    "id" : 389
  },
  {
    "name" : {
      "english" : "TM63",
      "japanese" : "わざマシン63",
      "chinese" : "招式学习器63"
    },
    "id" : 390
  },
  {
    "name" : {
      "chinese" : "招式学习器64",
      "english" : "TM64",
      "japanese" : "わざマシン64"
    },
    "id" : 391
  },
  {
    "name" : {
      "japanese" : "わざマシン65",
      "english" : "TM65",
      "chinese" : "招式学习器65"
    },
    "id" : 392
  },
  {
    "id" : 393,
    "name" : {
      "chinese" : "招式学习器66",
      "japanese" : "わざマシン66",
      "english" : "TM66"
    }
  },
  {
    "name" : {
      "japanese" : "わざマシン67",
      "english" : "TM67",
      "chinese" : "招式学习器67"
    },
    "id" : 394
  },
  {
    "id" : 395,
    "name" : {
      "chinese" : "招式学习器68",
      "japanese" : "わざマシン68",
      "english" : "TM68"
    }
  },
  {
    "name" : {
      "chinese" : "招式学习器69",
      "japanese" : "わざマシン69",
      "english" : "TM69"
    },
    "id" : 396
  },
  {
    "name" : {
      "english" : "TM70",
      "japanese" : "わざマシン70",
      "chinese" : "招式学习器70"
    },
    "id" : 397
  },
  {
    "name" : {
      "japanese" : "わざマシン71",
      "english" : "TM71",
      "chinese" : "招式学习器71"
    },
    "id" : 398
  },
  {
    "id" : 399,
    "name" : {
      "english" : "TM72",
      "japanese" : "わざマシン72",
      "chinese" : "招式学习器72"
    }
  },
  {
    "id" : 400,
    "name" : {
      "chinese" : "招式学习器73",
      "japanese" : "わざマシン73",
      "english" : "TM73"
    }
  },
  {
    "name" : {
      "english" : "TM74",
      "japanese" : "わざマシン74",
      "chinese" : "招式学习器74"
    },
    "id" : 401
  },
  {
    "id" : 402,
    "name" : {
      "chinese" : "招式学习器75",
      "japanese" : "わざマシン75",
      "english" : "TM75"
    }
  },
  {
    "id" : 403,
    "name" : {
      "chinese" : "招式学习器76",
      "japanese" : "わざマシン76",
      "english" : "TM76"
    }
  },
  {
    "id" : 404,
    "name" : {
      "english" : "TM77",
      "japanese" : "わざマシン77",
      "chinese" : "招式学习器77"
    }
  },
  {
    "name" : {
      "japanese" : "わざマシン78",
      "english" : "TM78",
      "chinese" : "招式学习器78"
    },
    "id" : 405
  },
  {
    "id" : 406,
    "name" : {
      "chinese" : "招式学习器79",
      "english" : "TM79",
      "japanese" : "わざマシン79"
    }
  },
  {
    "name" : {
      "japanese" : "わざマシン80",
      "english" : "TM80",
      "chinese" : "招式学习器80"
    },
    "id" : 407
  },
  {
    "id" : 408,
    "name" : {
      "chinese" : "招式学习器81",
      "english" : "TM81",
      "japanese" : "わざマシン81"
    }
  },
  {
    "name" : {
      "chinese" : "招式学习器82",
      "japanese" : "わざマシン82",
      "english" : "TM82"
    },
    "id" : 409
  },
  {
    "id" : 410,
    "name" : {
      "chinese" : "招式学习器83",
      "english" : "TM83",
      "japanese" : "わざマシン83"
    }
  },
  {
    "name" : {
      "english" : "TM84",
      "japanese" : "わざマシン84",
      "chinese" : "招式学习器84"
    },
    "id" : 411
  },
  {
    "id" : 412,
    "name" : {
      "japanese" : "わざマシン85",
      "english" : "TM85",
      "chinese" : "招式学习器85"
    }
  },
  {
    "name" : {
      "japanese" : "わざマシン86",
      "english" : "TM86",
      "chinese" : "招式学习器86"
    },
    "id" : 413
  },
  {
    "id" : 414,
    "name" : {
      "chinese" : "招式学习器87",
      "japanese" : "わざマシン87",
      "english" : "TM87"
    }
  },
  {
    "id" : 415,
    "name" : {
      "english" : "TM88",
      "japanese" : "わざマシン88",
      "chinese" : "招式学习器88"
    }
  },
  {
    "id" : 416,
    "name" : {
      "japanese" : "わざマシン89",
      "english" : "TM89",
      "chinese" : "招式学习器89"
    }
  },
  {
    "name" : {
      "chinese" : "招式学习器90",
      "japanese" : "わざマシン90",
      "english" : "TM90"
    },
    "id" : 417
  },
  {
    "name" : {
      "japanese" : "わざマシン91",
      "english" : "TM91",
      "chinese" : "招式学习器91"
    },
    "id" : 418
  },
  {
    "name" : {
      "english" : "TM92",
      "japanese" : "わざマシン92",
      "chinese" : "招式学习器92"
    },
    "id" : 419
  },
  {
    "name" : {
      "chinese" : "秘传学习器01",
      "english" : "HM01",
      "japanese" : "ひでんマシン01"
    },
    "id" : 420
  },
  {
    "name" : {
      "chinese" : "秘传学习器02",
      "english" : "HM02",
      "japanese" : "ひでんマシン02"
    },
    "id" : 421
  },
  {
    "name" : {
      "japanese" : "ひでんマシン03",
      "english" : "HM03",
      "chinese" : "秘传学习器03"
    },
    "id" : 422
  },
  {
    "name" : {
      "chinese" : "秘传学习器04",
      "japanese" : "ひでんマシン04",
      "english" : "HM04"
    },
    "id" : 423
  },
  {
    "name" : {
      "chinese" : "秘传学习器05",
      "english" : "HM05",
      "japanese" : "ひでんマシン05"
    },
    "id" : 424
  },
  {
    "name" : {
      "japanese" : "ひでんマシン06",
      "english" : "HM06",
      "chinese" : "秘传学习器06"
    },
    "id" : 425
  },
  {
    "id" : 453,
    "name" : {
      "chinese" : "新月之羽",
      "english" : "Lunar Wing",
      "japanese" : "みかづきのはね"
    }
  },
  {
    "id" : 458,
    "name" : {
      "chinese" : "火山镇石",
      "japanese" : "かざんのおきいし",
      "english" : "Magma Stone"
    }
  },
  {
    "name" : {
      "english" : "Slowpoke Tail",
      "japanese" : "おいしいシッポ",
      "chinese" : "美味尾巴"
    },
    "id" : 473
  },
  {
    "id" : 474,
    "name" : {
      "english" : "Clear Bell",
      "japanese" : "とうめいなスズ",
      "chinese" : "透明铃铛"
    }
  },
  {
    "id" : 478,
    "name" : {
      "japanese" : "あかいウロコ",
      "english" : "Red Scale",
      "chinese" : "红色鳞片"
    }
  },
  {
    "name" : {
      "japanese" : "リニアパス",
      "english" : "Pass",
      "chinese" : "定期月票"
    },
    "id" : 480
  },
  {
    "id" : 481,
    "name" : {
      "chinese" : "机械零件",
      "english" : "Machine Part",
      "japanese" : "きかいのぶひん"
    }
  },
  {
    "name" : {
      "chinese" : "银色之羽",
      "english" : "Silver Wing",
      "japanese" : "ぎんいろのはね"
    },
    "id" : 482
  },
  {
    "id" : 483,
    "name" : {
      "english" : "Rainbow Wing",
      "japanese" : "にじいろのはね",
      "chinese" : "虹色之羽"
    }
  },
  {
    "id" : 484,
    "name" : {
      "chinese" : "神奇蛋",
      "japanese" : "ふしぎなタマゴ",
      "english" : "Mystery Egg"
    }
  },
  {
    "name" : {
      "chinese" : "愤怒馒头",
      "english" : "Rage Candy Bar",
      "japanese" : "いかりまんじゅう"
    },
    "id" : 504
  },
  {
    "name" : {
      "chinese" : "草绿色宝珠",
      "japanese" : "もえぎいろのたま",
      "english" : "Jade Orb"
    },
    "id" : 532
  },
  {
    "id" : 533,
    "name" : {
      "japanese" : "ロックカプセル",
      "english" : "Lock Capsule",
      "chinese" : "上锁的容器"
    }
  },
  {
    "name" : {
      "japanese" : "べにいろのたま",
      "english" : "Red Orb",
      "chinese" : "朱红色宝珠"
    },
    "id" : 534
  },
  {
    "name" : {
      "japanese" : "あいいろのたま",
      "english" : "Blue Orb",
      "chinese" : "靛蓝色宝珠"
    },
    "id" : 535
  },
  {
    "id" : 536,
    "name" : {
      "english" : "Enigma Stone",
      "japanese" : "なぞのすいしょう",
      "chinese" : "谜之水晶"
    }
  },
  {
    "id" : 537,
    "name" : {
      "chinese" : "美丽鳞片",
      "japanese" : "きれいなウロコ",
      "english" : "Prism Scale"
    }
  },
  {
    "id" : 538,
    "name" : {
      "chinese" : "进化奇石",
      "english" : "Eviolite",
      "japanese" : "しんかのきせき"
    }
  },
  {
    "name" : {
      "japanese" : "かるいし",
      "english" : "Float Stone",
      "chinese" : "轻石"
    },
    "id" : 539
  },
  {
    "id" : 540,
    "name" : {
      "english" : "Rocky Helmet",
      "japanese" : "ゴツゴツメット",
      "chinese" : "凸凸头盔"
    }
  },
  {
    "id" : 541,
    "name" : {
      "english" : "Air Balloon",
      "japanese" : "ふうせん",
      "chinese" : "气球"
    }
  },
  {
    "name" : {
      "japanese" : "レッドカード",
      "english" : "Red Card",
      "chinese" : "红牌"
    },
    "id" : 542
  },
  {
    "name" : {
      "english" : "Ring Target",
      "japanese" : "ねらいのまと",
      "chinese" : "标靶"
    },
    "id" : 543
  },
  {
    "id" : 544,
    "name" : {
      "english" : "Binding Band",
      "japanese" : "しめつけバンド",
      "chinese" : "紧绑束带"
    }
  },
  {
    "name" : {
      "japanese" : "きゅうこん",
      "english" : "Absorb Bulb",
      "chinese" : "球根"
    },
    "id" : 545
  },
  {
    "name" : {
      "chinese" : "充电电池",
      "english" : "Cell Battery",
      "japanese" : "じゅうでんち"
    },
    "id" : 546
  },
  {
    "name" : {
      "english" : "Eject Button",
      "japanese" : "だっしゅつボタン",
      "chinese" : "逃脱按键"
    },
    "id" : 547
  },
  {
    "name" : {
      "chinese" : "火之宝石",
      "japanese" : "ほのおのジュエル",
      "english" : "Fire Gem"
    },
    "id" : 548
  },
  {
    "id" : 549,
    "name" : {
      "japanese" : "みずのジュエル",
      "english" : "Water Gem",
      "chinese" : "水之宝石"
    }
  },
  {
    "name" : {
      "chinese" : "电之宝石",
      "japanese" : "でんきのジュエル",
      "english" : "Electric Gem"
    },
    "id" : 550
  },
  {
    "id" : 551,
    "name" : {
      "chinese" : "草之宝石",
      "japanese" : "くさのジュエル",
      "english" : "Grass Gem"
    }
  },
  {
    "id" : 552,
    "name" : {
      "english" : "Ice Gem",
      "japanese" : "こおりのジュエル",
      "chinese" : "冰之宝石"
    }
  },
  {
    "name" : {
      "english" : "Fighting Gem",
      "japanese" : "かくとうジュエル",
      "chinese" : "格斗宝石"
    },
    "id" : 553
  },
  {
    "id" : 554,
    "name" : {
      "english" : "Poison Gem",
      "japanese" : "どくのジュエル",
      "chinese" : "毒之宝石"
    }
  },
  {
    "name" : {
      "english" : "Ground Gem",
      "japanese" : "じめんのジュエル",
      "chinese" : "地面宝石"
    },
    "id" : 555
  },
  {
    "name" : {
      "chinese" : "飞行宝石",
      "english" : "Flying Gem",
      "japanese" : "ひこうのジュエル"
    },
    "id" : 556
  },
  {
    "id" : 557,
    "name" : {
      "chinese" : "超能力宝石",
      "english" : "Psychic Gem",
      "japanese" : "エスパージュエル"
    }
  },
  {
    "id" : 558,
    "name" : {
      "english" : "Bug Gem",
      "japanese" : "むしのジュエル",
      "chinese" : "虫之宝石"
    }
  },
  {
    "name" : {
      "english" : "Rock Gem",
      "japanese" : "いわのジュエル",
      "chinese" : "岩石宝石"
    },
    "id" : 559
  },
  {
    "name" : {
      "chinese" : "幽灵宝石",
      "english" : "Ghost Gem",
      "japanese" : "ゴーストジュエル"
    },
    "id" : 560
  },
  {
    "id" : 561,
    "name" : {
      "chinese" : "龙之宝石",
      "japanese" : "ドラゴンジュエル",
      "english" : "Dragon Gem"
    }
  },
  {
    "name" : {
      "chinese" : "恶之宝石",
      "japanese" : "あくのジュエル",
      "english" : "Dark Gem"
    },
    "id" : 562
  },
  {
    "id" : 563,
    "name" : {
      "english" : "Steel Gem",
      "japanese" : "はがねのジュエル",
      "chinese" : "钢之宝石"
    }
  },
  {
    "id" : 564,
    "name" : {
      "chinese" : "一般宝石",
      "japanese" : "ノーマルジュエル",
      "english" : "Normal Gem"
    }
  },
  {
    "id" : 616,
    "name" : {
      "english" : "Light Stone",
      "japanese" : "ライトストーン",
      "chinese" : "光明石"
    }
  },
  {
    "name" : {
      "chinese" : "黑暗石",
      "english" : "Dark Stone",
      "japanese" : "ダークストーン"
    },
    "id" : 617
  },
  {
    "name" : {
      "chinese" : "招式学习器93",
      "japanese" : "わざマシン93",
      "english" : "TM93"
    },
    "id" : 618
  },
  {
    "id" : 619,
    "name" : {
      "english" : "TM94",
      "japanese" : "わざマシン94",
      "chinese" : "招式学习器94"
    }
  },
  {
    "name" : {
      "chinese" : "招式学习器95",
      "japanese" : "わざマシン95",
      "english" : "TM95"
    },
    "id" : 620
  },
  {
    "id" : 638,
    "name" : {
      "chinese" : "现形镜",
      "english" : "Reveal Glass",
      "japanese" : "うつしかがみ"
    }
  },
  {
    "name" : {
      "english" : "Weakness Policy",
      "japanese" : "じゃくてんほけん",
      "chinese" : "弱点保险"
    },
    "id" : 639
  },
  {
    "name" : {
      "english" : "Assault Vest",
      "japanese" : "とつげきチョッキ",
      "chinese" : "突击背心"
    },
    "id" : 640
  },
  {
    "id" : 644,
    "name" : {
      "chinese" : "妖精石板",
      "english" : "Pixie Plate",
      "japanese" : "せいれいプレート"
    }
  },
  {
    "name" : {
      "japanese" : "とくせいカプセル",
      "english" : "Ability Capsule",
      "chinese" : "特性胶囊"
    },
    "id" : 645
  },
  {
    "id" : 646,
    "name" : {
      "english" : "Whipped Dream",
      "japanese" : "ホイップポップ",
      "chinese" : "泡沫奶油"
    }
  },
  {
    "id" : 647,
    "name" : {
      "chinese" : "香袋",
      "japanese" : "においぶくろ",
      "english" : "Sachet"
    }
  },
  {
    "name" : {
      "chinese" : "光苔",
      "english" : "Luminous Moss",
      "japanese" : "ひかりごけ"
    },
    "id" : 648
  },
  {
    "name" : {
      "chinese" : "雪球",
      "english" : "Snowball",
      "japanese" : "ゆきだま"
    },
    "id" : 649
  },
  {
    "name" : {
      "chinese" : "防尘护目镜",
      "english" : "Safety Goggles",
      "japanese" : "ぼうじんゴーグル"
    },
    "id" : 650
  },
  {
    "name" : {
      "chinese" : "耿鬼进化石",
      "japanese" : "ゲンガナイト",
      "english" : "Gengarite"
    },
    "id" : 656
  },
  {
    "id" : 657,
    "name" : {
      "chinese" : "沙奈朵进化石",
      "english" : "Gardevoirite",
      "japanese" : "サーナイトナイト"
    }
  },
  {
    "id" : 658,
    "name" : {
      "chinese" : "电龙进化石",
      "english" : "Ampharosite",
      "japanese" : "デンリュウナイト"
    }
  },
  {
    "id" : 659,
    "name" : {
      "chinese" : "妙蛙花进化石",
      "japanese" : "フシギバナイト",
      "english" : "Venusaurite"
    }
  },
  {
    "name" : {
      "japanese" : "リザードナイトX",
      "english" : "Charizardite X",
      "chinese" : "喷火龙进化石X"
    },
    "id" : 660
  },
  {
    "name" : {
      "english" : "Blastoisinite",
      "japanese" : "カメックスナイト",
      "chinese" : "水箭龟进化石"
    },
    "id" : 661
  },
  {
    "id" : 662,
    "name" : {
      "chinese" : "超梦进化石X",
      "japanese" : "ミュウツナイトX",
      "english" : "Mewtwonite X"
    }
  },
  {
    "name" : {
      "chinese" : "超梦进化石Y",
      "english" : "Mewtwonite Y",
      "japanese" : "ミュウツナイトY"
    },
    "id" : 663
  },
  {
    "name" : {
      "japanese" : "バシャーモナイト",
      "english" : "Blazikenite",
      "chinese" : "火焰鸡进化石"
    },
    "id" : 664
  },
  {
    "id" : 665,
    "name" : {
      "english" : "Medichamite",
      "japanese" : "チャーレムナイト",
      "chinese" : "恰雷姆进化石"
    }
  },
  {
    "id" : 666,
    "name" : {
      "chinese" : "黑鲁加进化石",
      "english" : "Houndoominite",
      "japanese" : "ヘルガナイト"
    }
  },
  {
    "id" : 667,
    "name" : {
      "chinese" : "波士可多拉进化石",
      "english" : "Aggronite",
      "japanese" : "ボスゴドラナイト"
    }
  },
  {
    "id" : 668,
    "name" : {
      "chinese" : "诅咒娃娃进化石",
      "japanese" : "ジュペッタナイト",
      "english" : "Banettite"
    }
  },
  {
    "id" : 669,
    "name" : {
      "english" : "Tyranitarite",
      "japanese" : "バンギラスナイト",
      "chinese" : "班基拉斯进化石"
    }
  },
  {
    "id" : 670,
    "name" : {
      "english" : "Scizorite",
      "japanese" : "ハッサムナイト",
      "chinese" : "巨钳螳螂进化石"
    }
  },
  {
    "id" : 671,
    "name" : {
      "japanese" : "カイロスナイト",
      "english" : "Pinsirite",
      "chinese" : "凯罗斯进化石"
    }
  },
  {
    "name" : {
      "chinese" : "化石翼龙进化石",
      "english" : "Aerodactylite",
      "japanese" : "プテラナイト"
    },
    "id" : 672
  },
  {
    "id" : 673,
    "name" : {
      "english" : "Lucarionite",
      "japanese" : "ルカリオナイト",
      "chinese" : "路卡利欧进化石"
    }
  },
  {
    "id" : 674,
    "name" : {
      "japanese" : "ユキノオナイト",
      "english" : "Abomasite",
      "chinese" : "暴雪王进化石"
    }
  },
  {
    "id" : 675,
    "name" : {
      "chinese" : "袋兽进化石",
      "japanese" : "ガルーラナイト",
      "english" : "Kangaskhanite"
    }
  },
  {
    "name" : {
      "chinese" : "暴鲤龙进化石",
      "english" : "Gyaradosite",
      "japanese" : "ギャラドスナイト"
    },
    "id" : 676
  },
  {
    "name" : {
      "chinese" : "阿勃梭鲁进化石",
      "english" : "Absolite",
      "japanese" : "アブソルナイト"
    },
    "id" : 677
  },
  {
    "id" : 678,
    "name" : {
      "chinese" : "喷火龙进化石Y",
      "japanese" : "リザードナイトY",
      "english" : "Charizardite Y"
    }
  },
  {
    "id" : 679,
    "name" : {
      "english" : "Alakazite",
      "japanese" : "フーディナイト",
      "chinese" : "胡地进化石"
    }
  },
  {
    "name" : {
      "japanese" : "ヘラクロスナイト",
      "english" : "Heracronite",
      "chinese" : "赫拉克罗斯进化石"
    },
    "id" : 680
  },
  {
    "id" : 681,
    "name" : {
      "chinese" : "大嘴娃进化石",
      "japanese" : "クチートナイト",
      "english" : "Mawilite"
    }
  },
  {
    "name" : {
      "english" : "Manectite",
      "japanese" : "ライボルトナイト",
      "chinese" : "雷电兽进化石"
    },
    "id" : 682
  },
  {
    "id" : 683,
    "name" : {
      "japanese" : "ガブリアスナイト",
      "english" : "Garchompite",
      "chinese" : "烈咬陆鲨进化石"
    }
  },
  {
    "name" : {
      "chinese" : "拉帝亚斯进化石",
      "japanese" : "ラティアスナイト",
      "english" : "Latiasite"
    },
    "id" : 684
  },
  {
    "name" : {
      "japanese" : "ラティオスナイト",
      "english" : "Latiosite",
      "chinese" : "拉帝欧斯进化石"
    },
    "id" : 685
  },
  {
    "name" : {
      "chinese" : "洛玫果",
      "english" : "Roseli Berry",
      "japanese" : "ロゼルのみ"
    },
    "id" : 686
  },
  {
    "name" : {
      "chinese" : "亚开果",
      "japanese" : "アッキのみ",
      "english" : "Kee Berry"
    },
    "id" : 687
  },
  {
    "id" : 688,
    "name" : {
      "chinese" : "香罗果",
      "japanese" : "タラプのみ",
      "english" : "Maranga Berry"
    }
  },
  {
    "name" : {
      "english" : "TM96",
      "japanese" : "わざマシン96",
      "chinese" : "招式学习器96"
    },
    "id" : 690
  },
  {
    "id" : 691,
    "name" : {
      "chinese" : "招式学习器97",
      "english" : "TM97",
      "japanese" : "わざマシン97"
    }
  },
  {
    "name" : {
      "chinese" : "招式学习器98",
      "japanese" : "わざマシン98",
      "english" : "TM98"
    },
    "id" : 692
  },
  {
    "id" : 693,
    "name" : {
      "chinese" : "招式学习器99",
      "english" : "TM99",
      "japanese" : "わざマシン99"
    }
  },
  {
    "id" : 694,
    "name" : {
      "chinese" : "招式学习器100",
      "japanese" : "わざマシン100",
      "english" : "TM100"
    }
  },
  {
    "id" : 715,
    "name" : {
      "chinese" : "妖精宝石",
      "english" : "Fairy Gem",
      "japanese" : "フェアリージュエル"
    }
  },
  {
    "name" : {
      "chinese" : "陨石",
      "english" : "Meteorite",
      "japanese" : "いんせき"
    },
    "id" : 751
  },
  {
    "name" : {
      "chinese" : "巨沼怪进化石",
      "japanese" : "ラグラージナイト",
      "english" : "Swampertite"
    },
    "id" : 752
  },
  {
    "name" : {
      "english" : "Sceptilite",
      "japanese" : "ジュカインナイト",
      "chinese" : "蜥蜴王进化石"
    },
    "id" : 753
  },
  {
    "id" : 754,
    "name" : {
      "chinese" : "勾魂眼进化石",
      "japanese" : "ヤミラミナイト",
      "english" : "Sablenite"
    }
  },
  {
    "id" : 755,
    "name" : {
      "japanese" : "チルタリスナイト",
      "english" : "Altarianite",
      "chinese" : "七夕青鸟进化石"
    }
  },
  {
    "name" : {
      "english" : "Galladite",
      "japanese" : "エルレイドナイト",
      "chinese" : "艾路雷朵进化石"
    },
    "id" : 756
  },
  {
    "id" : 757,
    "name" : {
      "english" : "Audinite",
      "japanese" : "タブンネナイト",
      "chinese" : "差不多娃娃进化石"
    }
  },
  {
    "id" : 758,
    "name" : {
      "chinese" : "巨金怪进化石",
      "japanese" : "メタグロスナイト",
      "english" : "Metagrossite"
    }
  },
  {
    "id" : 759,
    "name" : {
      "japanese" : "サメハダナイト",
      "english" : "Sharpedonite",
      "chinese" : "巨牙鲨进化石"
    }
  },
  {
    "name" : {
      "chinese" : "呆壳兽进化石",
      "japanese" : "ヤドランナイト",
      "english" : "Slowbronite"
    },
    "id" : 760
  },
  {
    "name" : {
      "japanese" : "ハガネールナイト",
      "english" : "Steelixite",
      "chinese" : "大钢蛇进化石"
    },
    "id" : 761
  },
  {
    "name" : {
      "japanese" : "ピジョットナイト",
      "english" : "Pidgeotite",
      "chinese" : "大比鸟进化石"
    },
    "id" : 762
  },
  {
    "name" : {
      "japanese" : "オニゴーリナイト",
      "english" : "Glalitite",
      "chinese" : "冰鬼护进化石"
    },
    "id" : 763
  },
  {
    "id" : 764,
    "name" : {
      "chinese" : "蒂安希进化石",
      "english" : "Diancite",
      "japanese" : "ディアンシナイト"
    }
  },
  {
    "id" : 765,
    "name" : {
      "chinese" : "惩戒之壶",
      "japanese" : "いましめのつぼ",
      "english" : "Prison Bottle"
    }
  },
  {
    "id" : 766,
    "name" : {
      "chinese" : "超级护腕",
      "japanese" : "メガブレス",
      "english" : "Mega Cuff"
    }
  },
  {
    "id" : 767,
    "name" : {
      "english" : "Cameruptite",
      "japanese" : "バクーダナイト",
      "chinese" : "喷火驼进化石"
    }
  },
  {
    "name" : {
      "chinese" : "长耳兔进化石",
      "japanese" : "ミミロップナイト",
      "english" : "Lopunnite"
    },
    "id" : 768
  },
  {
    "name" : {
      "english" : "Salamencite",
      "japanese" : "ボーマンダナイト",
      "chinese" : "暴飞龙进化石"
    },
    "id" : 769
  },
  {
    "id" : 770,
    "name" : {
      "japanese" : "スピアナイト",
      "english" : "Beedrillite",
      "chinese" : "大针蜂进化石"
    }
  },
  {
    "id" : 771,
    "name" : {
      "english" : "Meteorite",
      "japanese" : "いんせき",
      "chinese" : "陨石"
    }
  },
  {
    "id" : 772,
    "name" : {
      "chinese" : "陨石",
      "english" : "Meteorite",
      "japanese" : "いんせき"
    }
  },
  {
    "id" : 773,
    "name" : {
      "chinese" : "钥石",
      "japanese" : "キーストーン",
      "english" : "Key Stone"
    }
  },
  {
    "id" : 774,
    "name" : {
      "english" : "Meteorite Shard",
      "japanese" : "いんせきのかけら",
      "chinese" : "陨石碎片"
    }
  },
  {
    "name" : {
      "chinese" : "无限之笛",
      "english" : "Eon Flute",
      "japanese" : "むげんのふえ"
    },
    "id" : 775
  },
  {
    "name" : {
      "english" : "Normalium Z",
      "japanese" : "ノーマルＺ",
      "chinese" : "一般Ｚ"
    },
    "id" : 776
  },
  {
    "id" : 777,
    "name" : {
      "english" : "Firium Z",
      "japanese" : "ホノオＺ",
      "chinese" : "火Ｚ"
    }
  },
  {
    "id" : 778,
    "name" : {
      "japanese" : "ミズＺ",
      "english" : "Waterium Z",
      "chinese" : "水Ｚ"
    }
  },
  {
    "id" : 779,
    "name" : {
      "chinese" : "电Ｚ",
      "english" : "Electrium Z",
      "japanese" : "デンキＺ"
    }
  },
  {
    "id" : 780,
    "name" : {
      "japanese" : "クサＺ",
      "english" : "Grassium Z",
      "chinese" : "草Ｚ"
    }
  },
  {
    "name" : {
      "japanese" : "コオリＺ",
      "english" : "Icium Z",
      "chinese" : "冰Ｚ"
    },
    "id" : 781
  },
  {
    "name" : {
      "chinese" : "格斗Ｚ",
      "japanese" : "カクトウＺ",
      "english" : "Fightinium Z"
    },
    "id" : 782
  },
  {
    "id" : 783,
    "name" : {
      "english" : "Poisonium Z",
      "japanese" : "ドクＺ",
      "chinese" : "毒Ｚ"
    }
  },
  {
    "id" : 784,
    "name" : {
      "english" : "Groundium Z",
      "japanese" : "ジメンＺ",
      "chinese" : "地面Ｚ"
    }
  },
  {
    "name" : {
      "japanese" : "ヒコウＺ",
      "english" : "Flyinium Z",
      "chinese" : "飞行Ｚ"
    },
    "id" : 785
  },
  {
    "id" : 786,
    "name" : {
      "chinese" : "超能力Ｚ",
      "japanese" : "エスパーＺ",
      "english" : "Psychium Z"
    }
  },
  {
    "id" : 787,
    "name" : {
      "japanese" : "ムシＺ",
      "english" : "Buginium Z",
      "chinese" : "虫Ｚ"
    }
  },
  {
    "name" : {
      "chinese" : "岩石Ｚ",
      "japanese" : "イワＺ",
      "english" : "Rockium Z"
    },
    "id" : 788
  },
  {
    "name" : {
      "chinese" : "幽灵Ｚ",
      "japanese" : "ゴーストＺ",
      "english" : "Ghostium Z"
    },
    "id" : 789
  },
  {
    "name" : {
      "english" : "Dragonium Z",
      "japanese" : "ドラゴンＺ",
      "chinese" : "龙Ｚ"
    },
    "id" : 790
  },
  {
    "name" : {
      "chinese" : "恶Ｚ",
      "english" : "Darkinium Z",
      "japanese" : "アクＺ"
    },
    "id" : 791
  },
  {
    "name" : {
      "japanese" : "ハガネＺ",
      "english" : "Steelium Z",
      "chinese" : "钢Ｚ"
    },
    "id" : 792
  },
  {
    "id" : 793,
    "name" : {
      "chinese" : "妖精Ｚ",
      "english" : "Fairium Z",
      "japanese" : "フェアリーＺ"
    }
  },
  {
    "id" : 794,
    "name" : {
      "english" : "Pikanium Z",
      "japanese" : "ピカチュウＺ",
      "chinese" : "皮卡丘Ｚ"
    }
  },
  {
    "id" : 795,
    "name" : {
      "chinese" : "银色王冠",
      "japanese" : "ぎんのおうかん",
      "english" : "Bottle Cap"
    }
  },
  {
    "name" : {
      "chinese" : "金色王冠",
      "english" : "Gold Bottle Cap",
      "japanese" : "きんのおうかん"
    },
    "id" : 796
  },
  {
    "name" : {
      "english" : "Z-Ring",
      "japanese" : "Ｚリング",
      "chinese" : "Ｚ手环"
    },
    "id" : 797
  },
  {
    "id" : 798,
    "name" : {
      "chinese" : "狙射树枭Ｚ",
      "english" : "Decidium Z",
      "japanese" : "ジュナイパーＺ"
    }
  },
  {
    "name" : {
      "japanese" : "ガオガエンＺ",
      "english" : "Incinium Z",
      "chinese" : "炽焰咆哮虎Ｚ"
    },
    "id" : 799
  },
  {
    "id" : 800,
    "name" : {
      "chinese" : "西狮海壬Ｚ",
      "english" : "Primarium Z",
      "japanese" : "アシレーヌＺ"
    }
  },
  {
    "id" : 801,
    "name" : {
      "english" : "Tapunium Z",
      "japanese" : "カプＺ",
      "chinese" : "卡璞Ｚ"
    }
  },
  {
    "name" : {
      "japanese" : "マーシャドーＺ",
      "english" : "Marshadium Z",
      "chinese" : "玛夏多Ｚ"
    },
    "id" : 802
  },
  {
    "id" : 803,
    "name" : {
      "english" : "Aloraichium Z",
      "japanese" : "アロライＺ",
      "chinese" : "阿罗雷Ｚ"
    }
  },
  {
    "name" : {
      "japanese" : "カビゴンＺ",
      "english" : "Snorlium Z",
      "chinese" : "卡比兽Ｚ"
    },
    "id" : 804
  },
  {
    "name" : {
      "english" : "Eevium Z",
      "japanese" : "イーブイＺ",
      "chinese" : "伊布Ｚ"
    },
    "id" : 805
  },
  {
    "name" : {
      "chinese" : "梦幻Ｚ",
      "japanese" : "ミュウＺ",
      "english" : "Mewnium Z"
    },
    "id" : 806
  },
  {
    "name" : {
      "japanese" : "ノーマルＺ",
      "english" : "Normalium Z",
      "chinese" : "一般Ｚ"
    },
    "id" : 807
  },
  {
    "id" : 808,
    "name" : {
      "english" : "Firium Z",
      "japanese" : "ホノオＺ",
      "chinese" : "火Ｚ"
    }
  },
  {
    "name" : {
      "english" : "Waterium Z",
      "japanese" : "ミズＺ",
      "chinese" : "水Ｚ"
    },
    "id" : 809
  },
  {
    "id" : 810,
    "name" : {
      "japanese" : "デンキＺ",
      "english" : "Electrium Z",
      "chinese" : "电Ｚ"
    }
  },
  {
    "id" : 811,
    "name" : {
      "japanese" : "クサＺ",
      "english" : "Grassium Z",
      "chinese" : "草Ｚ"
    }
  },
  {
    "id" : 812,
    "name" : {
      "english" : "Icium Z",
      "japanese" : "コオリＺ",
      "chinese" : "冰Ｚ"
    }
  },
  {
    "id" : 813,
    "name" : {
      "english" : "Fightinium Z",
      "japanese" : "カクトウＺ",
      "chinese" : "格斗Ｚ"
    }
  },
  {
    "name" : {
      "japanese" : "ドクＺ",
      "english" : "Poisonium Z",
      "chinese" : "毒Ｚ"
    },
    "id" : 814
  },
  {
    "id" : 815,
    "name" : {
      "japanese" : "ジメンＺ",
      "english" : "Groundium Z",
      "chinese" : "地面Ｚ"
    }
  },
  {
    "name" : {
      "chinese" : "飞行Ｚ",
      "english" : "Flyinium Z",
      "japanese" : "ヒコウＺ"
    },
    "id" : 816
  },
  {
    "id" : 817,
    "name" : {
      "english" : "Psychium Z",
      "japanese" : "エスパーＺ",
      "chinese" : "超能力Ｚ"
    }
  },
  {
    "id" : 818,
    "name" : {
      "english" : "Buginium Z",
      "japanese" : "ムシＺ",
      "chinese" : "虫Ｚ"
    }
  },
  {
    "id" : 819,
    "name" : {
      "chinese" : "岩石Ｚ",
      "english" : "Rockium Z",
      "japanese" : "イワＺ"
    }
  },
  {
    "id" : 820,
    "name" : {
      "japanese" : "ゴーストＺ",
      "english" : "Ghostium Z",
      "chinese" : "幽灵Ｚ"
    }
  },
  {
    "id" : 821,
    "name" : {
      "japanese" : "ドラゴンＺ",
      "english" : "Dragonium Z",
      "chinese" : "龙Ｚ"
    }
  },
  {
    "name" : {
      "chinese" : "恶Ｚ",
      "english" : "Darkinium Z",
      "japanese" : "アクＺ"
    },
    "id" : 822
  },
  {
    "id" : 823,
    "name" : {
      "chinese" : "钢Ｚ",
      "japanese" : "ハガネＺ",
      "english" : "Steelium Z"
    }
  },
  {
    "name" : {
      "chinese" : "妖精Ｚ",
      "japanese" : "フェアリーＺ",
      "english" : "Fairium Z"
    },
    "id" : 824
  },
  {
    "id" : 825,
    "name" : {
      "chinese" : "皮卡丘Ｚ",
      "english" : "Pikanium Z",
      "japanese" : "ピカチュウＺ"
    }
  },
  {
    "id" : 826,
    "name" : {
      "japanese" : "ジュナイパーＺ",
      "english" : "Decidium Z",
      "chinese" : "狙射树枭Ｚ"
    }
  },
  {
    "id" : 827,
    "name" : {
      "english" : "Incinium Z",
      "japanese" : "ガオガエンＺ",
      "chinese" : "炽焰咆哮虎Ｚ"
    }
  },
  {
    "id" : 828,
    "name" : {
      "chinese" : "西狮海壬Ｚ",
      "english" : "Primarium Z",
      "japanese" : "アシレーヌＺ"
    }
  },
  {
    "id" : 829,
    "name" : {
      "english" : "Tapunium Z",
      "japanese" : "カプＺ",
      "chinese" : "卡璞Ｚ"
    }
  },
  {
    "name" : {
      "chinese" : "玛夏多Ｚ",
      "japanese" : "マーシャドーＺ",
      "english" : "Marshadium Z"
    },
    "id" : 830
  },
  {
    "name" : {
      "english" : "Aloraichium Z",
      "japanese" : "アロライＺ",
      "chinese" : "阿罗雷Ｚ"
    },
    "id" : 831
  },
  {
    "id" : 832,
    "name" : {
      "japanese" : "カビゴンＺ",
      "english" : "Snorlium Z",
      "chinese" : "卡比兽Ｚ"
    }
  },
  {
    "id" : 833,
    "name" : {
      "english" : "Eevium Z",
      "japanese" : "イーブイＺ",
      "chinese" : "伊布Ｚ"
    }
  },
  {
    "id" : 834,
    "name" : {
      "chinese" : "梦幻Ｚ",
      "english" : "Mewnium Z",
      "japanese" : "ミュウＺ"
    }
  },
  {
    "name" : {
      "japanese" : "サトピカＺ",
      "english" : "Pikashunium Z",
      "chinese" : "智皮卡Ｚ"
    },
    "id" : 835
  },
  {
    "id" : 836,
    "name" : {
      "chinese" : "智皮卡Ｚ",
      "japanese" : "サトピカＺ",
      "english" : "Pikashunium Z"
    }
  },
  {
    "name" : {
      "japanese" : "かがやくいし",
      "english" : "Sparkling Stone",
      "chinese" : "光辉石"
    },
    "id" : 845
  },
  {
    "name" : {
      "japanese" : "ビビリだま",
      "english" : "Adrenaline Orb",
      "chinese" : "胆怯球"
    },
    "id" : 846
  },
  {
    "name" : {
      "japanese" : "ジガルデキューブ",
      "english" : "Zygarde Cube",
      "chinese" : "基格尔德多面体"
    },
    "id" : 847
  },
  {
    "name" : {
      "japanese" : "こおりのいし",
      "english" : "Ice Stone",
      "chinese" : "冰之石"
    },
    "id" : 849
  },
  {
    "id" : 853,
    "name" : {
      "english" : "Red Nectar",
      "japanese" : "くれないのミツ",
      "chinese" : "朱紅色花蜜"
    }
  },
  {
    "name" : {
      "chinese" : "金黄色花蜜",
      "japanese" : "やまぶきのミツ",
      "english" : "Yellow Nectar"
    },
    "id" : 854
  },
  {
    "name" : {
      "chinese" : "桃粉色花蜜",
      "english" : "Pink Nectar",
      "japanese" : "うすもものミツ"
    },
    "id" : 855
  },
  {
    "name" : {
      "chinese" : "兰紫色花蜜",
      "japanese" : "むらさきのミツ",
      "english" : "Purple Nectar"
    },
    "id" : 856
  },
  {
    "name" : {
      "chinese" : "太阳之笛",
      "english" : "Sun Flute",
      "japanese" : "たいようのふえ"
    },
    "id" : 857
  },
  {
    "id" : 858,
    "name" : {
      "chinese" : "月亮之笛",
      "japanese" : "つきのふえ",
      "english" : "Moon Flute"
    }
  },
  {
    "name" : {
      "japanese" : "あやしいカード",
      "english" : "Enigmatic Card",
      "chinese" : "奇异卡片"
    },
    "id" : 860
  },
  {
    "name" : {
      "english" : "Terrain Extender",
      "japanese" : "グランドコート",
      "chinese" : "大地膜"
    },
    "id" : 879
  },
  {
    "name" : {
      "chinese" : "部位护具",
      "japanese" : "ぼうごパット",
      "english" : "Protective Pads"
    },
    "id" : 880
  },
  {
    "name" : {
      "chinese" : "电气种子",
      "japanese" : "エレキシード",
      "english" : "Electric Seed"
    },
    "id" : 881
  },
  {
    "name" : {
      "english" : "Psychic Seed",
      "japanese" : "サイコシード",
      "chinese" : "精神种子"
    },
    "id" : 882
  },
  {
    "id" : 883,
    "name" : {
      "japanese" : "ミストシード",
      "english" : "Misty Seed",
      "chinese" : "薄雾种子"
    }
  },
  {
    "id" : 884,
    "name" : {
      "english" : "Grassy Seed",
      "japanese" : "グラスシード",
      "chinese" : "青草种子"
    }
  },
  {
    "name" : {
      "english" : "Fighting Memory",
      "japanese" : "ファイトメモリ",
      "chinese" : "战斗存储碟"
    },
    "id" : 904
  },
  {
    "id" : 905,
    "name" : {
      "english" : "Flying Memory",
      "japanese" : "フライングメモリ",
      "chinese" : "飞翔存储碟"
    }
  },
  {
    "name" : {
      "chinese" : "毒存储碟",
      "english" : "Poison Memory",
      "japanese" : "ポイズンメモリ"
    },
    "id" : 906
  },
  {
    "name" : {
      "chinese" : "大地存储碟",
      "english" : "Ground Memory",
      "japanese" : "グラウンドメモリ"
    },
    "id" : 907
  },
  {
    "name" : {
      "chinese" : "岩石存储碟",
      "japanese" : "ロックメモリ",
      "english" : "Rock Memory"
    },
    "id" : 908
  },
  {
    "name" : {
      "chinese" : "虫子存储碟",
      "english" : "Bug Memory",
      "japanese" : "バグメモリ"
    },
    "id" : 909
  },
  {
    "id" : 910,
    "name" : {
      "japanese" : "ゴーストメモリ",
      "english" : "Ghost Memory",
      "chinese" : "幽灵存储碟"
    }
  },
  {
    "id" : 911,
    "name" : {
      "japanese" : "スチールメモリ",
      "english" : "Steel Memory",
      "chinese" : "钢铁存储碟"
    }
  },
  {
    "name" : {
      "japanese" : "ファイヤーメモリ",
      "english" : "Fire Memory",
      "chinese" : "火焰存储碟"
    },
    "id" : 912
  },
  {
    "name" : {
      "japanese" : "ウオーターメモリ",
      "english" : "Water Memory",
      "chinese" : "清水存储碟"
    },
    "id" : 913
  },
  {
    "name" : {
      "english" : "Grass Memory",
      "japanese" : "グラスメモリ",
      "chinese" : "青草存储碟"
    },
    "id" : 914
  },
  {
    "id" : 915,
    "name" : {
      "chinese" : "电子存储碟",
      "english" : "Electric Memory",
      "japanese" : "エレクトロメモリ"
    }
  },
  {
    "name" : {
      "english" : "Psychic Memory",
      "japanese" : "サイキックメモリ",
      "chinese" : "精神存储碟"
    },
    "id" : 916
  },
  {
    "id" : 917,
    "name" : {
      "chinese" : "冰雪存储碟",
      "japanese" : "アイスメモリ",
      "english" : "Ice Memory"
    }
  },
  {
    "id" : 918,
    "name" : {
      "chinese" : "龙存储碟",
      "english" : "Dragon Memory",
      "japanese" : "ドラゴンメモリ"
    }
  },
  {
    "name" : {
      "english" : "Dark Memory",
      "japanese" : "ダークメモリ",
      "chinese" : "黑暗存储碟"
    },
    "id" : 919
  },
  {
    "id" : 920,
    "name" : {
      "chinese" : "妖精存储碟",
      "japanese" : "フェアリーメモリ",
      "english" : "Fairy Memory"
    }
  },
  {
    "id" : 921,
    "name" : {
      "chinese" : "索尔迦雷欧Ｚ",
      "japanese" : "ソルガレオＺ",
      "english" : "Solganium Z"
    }
  },
  {
    "id" : 922,
    "name" : {
      "english" : "Lunalium Z",
      "japanese" : "ルナアーラＺ",
      "chinese" : "露奈雅拉Ｚ"
    }
  },
  {
    "name" : {
      "chinese" : "究极奈克洛Ｚ",
      "japanese" : "ウルトラネクロＺ",
      "english" : "Ultranecrozium Z"
    },
    "id" : 923
  },
  {
    "name" : {
      "chinese" : "谜拟ＱＺ",
      "english" : "Mimikium Z",
      "japanese" : "ミミッキュＺ"
    },
    "id" : 924
  },
  {
    "id" : 925,
    "name" : {
      "chinese" : "鬃岩狼人Ｚ",
      "japanese" : "ルガルガンＺ",
      "english" : "Lycanium Z"
    }
  },
  {
    "name" : {
      "english" : "Kommonium Z",
      "japanese" : "ジャラランガＺ",
      "chinese" : "杖尾鳞甲龙Ｚ"
    },
    "id" : 926
  },
  {
    "name" : {
      "english" : "Solganium Z",
      "japanese" : "ソルガレオＺ",
      "chinese" : "索尔迦雷欧Ｚ"
    },
    "id" : 927
  },
  {
    "name" : {
      "chinese" : "露奈雅拉Ｚ",
      "english" : "Lunalium Z",
      "japanese" : "ルナアーラＺ"
    },
    "id" : 928
  },
  {
    "id" : 929,
    "name" : {
      "chinese" : "究极奈克洛Ｚ",
      "japanese" : "ウルトラネクロＺ",
      "english" : "Ultranecrozium Z"
    }
  },
  {
    "name" : {
      "japanese" : "ミミッキュＺ",
      "english" : "Mimikium Z",
      "chinese" : "谜拟ＱＺ"
    },
    "id" : 930
  },
  {
    "id" : 931,
    "name" : {
      "chinese" : "鬃岩狼人Ｚ",
      "english" : "Lycanium Z",
      "japanese" : "ルガルガンＺ"
    }
  },
  {
    "name" : {
      "chinese" : "杖尾鳞甲龙Ｚ",
      "japanese" : "ジャラランガＺ",
      "english" : "Kommonium Z"
    },
    "id" : 932
  }
]
